2021-01-11 10:16:14.0948 ERROR Something went wrong inside GetAllOwners action: Unknown column 'o.Adress' in 'field list'
2021-01-11 10:18:31.0758 ERROR Something went wrong inside GetAllOwners action: Unknown column 'o.Adress' in 'field list'
2021-01-11 10:21:25.4198 ERROR Something went wrong inside GetAllOwners action: Unknown column 'o.Adress' in 'field list'
2021-01-11 10:22:24.1070 ERROR Something went wrong inside GetAllOwners action: Access denied for user 'root'@'localhost' (using password: NO)
2021-01-11 10:24:30.0170 ERROR Something went wrong inside GetAllOwners action: Unknown column 'o.Adress' in 'field list'
2021-01-11 10:35:58.2189 ERROR Something went wrong inside GetAllOwners action: Unknown column 'o.Adress' in 'field list'
2021-01-11 10:38:33.5255 ERROR Something went wrong inside GetAllOwners action: Unknown column 'o.Adress' in 'field list'
2021-01-11 11:07:13.3580 INFO Returned all owners from database.
2021-01-11 12:15:58.7937 INFO Returned all owners from database.
2021-01-11 12:36:00.1720 ERROR Something went wrong inside CreateOwner action: An error occurred while updating the entries. See the inner exception for details.
2021-01-11 12:36:18.7808 ERROR Something went wrong inside CreateOwner action: An error occurred while updating the entries. See the inner exception for details.
2021-01-11 12:36:19.9230 ERROR Something went wrong inside CreateOwner action: An error occurred while updating the entries. See the inner exception for details.
2021-01-11 12:36:37.7489 ERROR Something went wrong inside CreateOwner action: An error occurred while updating the entries. See the inner exception for details.
2021-01-11 12:37:02.6241 ERROR Something went wrong inside CreateOwner action: An error occurred while updating the entries. See the inner exception for details.
2021-01-11 12:37:47.9206 INFO Returned all owners from database.
2021-01-11 12:40:21.9412 ERROR Something went wrong inside CreateOwner action: An error occurred while updating the entries. See the inner exception for details.
2021-01-11 12:41:22.9533 ERROR Something went wrong inside CreateOwner action: An error occurred while updating the entries. See the inner exception for details.
2021-01-11 12:43:20.5782 ERROR Something went wrong inside CreateOwner action: An error occurred while updating the entries. See the inner exception for details.
2021-01-11 12:43:34.5443 ERROR Something went wrong inside CreateOwner action: An error occurred while updating the entries. See the inner exception for details.
2021-01-11 12:43:40.9374 ERROR Something went wrong inside CreateOwner action: An error occurred while updating the entries. See the inner exception for details.
2021-01-11 12:43:42.1652 ERROR Something went wrong inside CreateOwner action: An error occurred while updating the entries. See the inner exception for details.
2021-01-11 12:43:59.9832 ERROR Something went wrong inside CreateOwner action: An error occurred while updating the entries. See the inner exception for details.
2021-01-11 12:44:15.5764 ERROR Something went wrong inside CreateOwner action: An error occurred while updating the entries. See the inner exception for details.
2021-01-11 12:46:23.3294 ERROR Something went wrong inside CreateOwner action: An error occurred while updating the entries. See the inner exception for details.
2021-01-11 12:46:32.4261 ERROR Something went wrong inside CreateOwner action: An error occurred while updating the entries. See the inner exception for details.
2021-01-11 12:46:36.1090 ERROR Something went wrong inside CreateOwner action: An error occurred while updating the entries. See the inner exception for details.
2021-01-11 12:47:11.8349 ERROR Something went wrong inside CreateOwner action: An error occurred while updating the entries. See the inner exception for details.
2021-01-11 12:48:33.9029 ERROR Something went wrong inside CreateOwner action: An error occurred while updating the entries. See the inner exception for details.
2021-01-11 12:48:35.9262 ERROR Something went wrong inside CreateOwner action: An error occurred while updating the entries. See the inner exception for details.
2021-01-11 12:48:47.6115 ERROR Something went wrong inside CreateOwner action: An error occurred while updating the entries. See the inner exception for details.
2021-01-11 12:49:52.7783 ERROR Something went wrong inside CreateOwner action: An error occurred while updating the entries. See the inner exception for details.
2021-01-11 12:55:29.2207 ERROR Something went wrong inside CreateOwner action: An error occurred while updating the entries. See the inner exception for details.
2021-01-11 12:56:05.0843 ERROR Something went wrong inside CreateOwner action: An error occurred while updating the entries. See the inner exception for details.
2021-01-11 12:56:15.1096 ERROR Something went wrong inside CreateOwner action: An error occurred while updating the entries. See the inner exception for details.
2021-01-11 12:56:31.4337 ERROR Something went wrong inside CreateOwner action: An error occurred while updating the entries. See the inner exception for details.
2021-01-11 12:59:37.3134 ERROR Something went wrong inside CreateOwner action: An error occurred while updating the entries. See the inner exception for details.
2021-01-11 13:00:58.6064 ERROR Something went wrong inside CreateOwner action: An error occurred while updating the entries. See the inner exception for details.
2021-01-11 13:13:04.4061 ERROR Something went wrong inside CreateOwner action: An error occurred while updating the entries. See the inner exception for details.
2021-01-11 13:13:11.2657 ERROR Something went wrong inside CreateOwner action: An error occurred while updating the entries. See the inner exception for details.
2021-01-11 13:13:12.3803 ERROR Something went wrong inside CreateOwner action: An error occurred while updating the entries. See the inner exception for details.
